{ "frames": {
   "fartyBird 1.aseprite": {
    "frame": { "x": 35, "y": 0, "w": 35, "h": 66 },
    "rotated": false,
    "trimmed": false,
    "spriteSourceSize": { "x": 0, "y": 0, "w": 35, "h": 66 },
    "sourceSize": { "w": 35, "h": 66 },
    "duration": 200
   },
   "fartyBird 2.aseprite": {
    "frame": { "x": 70, "y": 0, "w": 35, "h": 66 },
    "rotated": false,
    "trimmed": false,
    "spriteSourceSize": { "x": 0, "y": 0, "w": 35, "h": 66 },
    "sourceSize": { "w": 35, "h": 66 },
    "duration": 100
   },
   "fartyBird 3.aseprite": {
    "frame": { "x": 105, "y": 0, "w": 35, "h": 66 },
    "rotated": false,
    "trimmed": false,
    "spriteSourceSize": { "x": 0, "y": 0, "w": 35, "h": 66 },
    "sourceSize": { "w": 35, "h": 66 },
    "duration": 50
   },
   "fartyBird 4.aseprite": {
    "frame": { "x": 140, "y": 0, "w": 35, "h": 66 },
    "rotated": false,
    "trimmed": false,
    "spriteSourceSize": { "x": 0, "y": 0, "w": 35, "h": 66 },
    "sourceSize": { "w": 35, "h": 66 },
    "duration": 50
   },
   "fartyBird 5.aseprite": {
    "frame": { "x": 175, "y": 0, "w": 35, "h": 66 },
    "rotated": false,
    "trimmed": false,
    "spriteSourceSize": { "x": 0, "y": 0, "w": 35, "h": 66 },
    "sourceSize": { "w": 35, "h": 66 },
    "duration": 50
   },
   "fartyBird 6.aseprite": {
    "frame": { "x": 210, "y": 0, "w": 35, "h": 66 },
    "rotated": false,
    "trimmed": false,
    "spriteSourceSize": { "x": 0, "y": 0, "w": 35, "h": 66 },
    "sourceSize": { "w": 35, "h": 66 },
    "duration": 50
   },
   "fartyBird 7.aseprite": {
    "frame": { "x": 245, "y": 0, "w": 35, "h": 66 },
    "rotated": false,
    "trimmed": false,
    "spriteSourceSize": { "x": 0, "y": 0, "w": 35, "h": 66 },
    "sourceSize": { "w": 35, "h": 66 },
    "duration": 50
   },
   "fartyBird 8.aseprite": {
    "frame": { "x": 280, "y": 0, "w": 35, "h": 66 },
    "rotated": false,
    "trimmed": false,
    "spriteSourceSize": { "x": 0, "y": 0, "w": 35, "h": 66 },
    "sourceSize": { "w": 35, "h": 66 },
    "duration": 50
   }
 },
 "meta": {
  "app": "https://www.aseprite.org/",
  "version": "1.3.2-x64",
  "image": "fartyBird.webp",
  "format": "RGBA8888",
  "size": { "w": 315, "h": 66 },
  "scale": "1",
  "frameTags": [
  ],
  "layers": [
   { "name": "fartima", "opacity": 255, "blendMode": "normal" }
  ],
  "slices": [
  ]
 }
}
