{ "frames": {
   "cutscene_background 0.aseprite": {
    "frame": { "x": 0, "y": 0, "w": 533, "h": 300 },
    "rotated": false,
    "trimmed": false,
    "spriteSourceSize": { "x": 0, "y": 0, "w": 533, "h": 300 },
    "sourceSize": { "w": 533, "h": 300 },
    "duration": 100
   },
   "cutscene_background 1.aseprite": {
    "frame": { "x": 533, "y": 0, "w": 533, "h": 300 },
    "rotated": false,
    "trimmed": false,
    "spriteSourceSize": { "x": 0, "y": 0, "w": 533, "h": 300 },
    "sourceSize": { "w": 533, "h": 300 },
    "duration": 200
   },
   "cutscene_background 2.aseprite": {
    "frame": { "x": 1066, "y": 0, "w": 533, "h": 300 },
    "rotated": false,
    "trimmed": false,
    "spriteSourceSize": { "x": 0, "y": 0, "w": 533, "h": 300 },
    "sourceSize": { "w": 533, "h": 300 },
    "duration": 100
   },
   "cutscene_background 3.aseprite": {
    "frame": { "x": 1599, "y": 0, "w": 533, "h": 300 },
    "rotated": false,
    "trimmed": false,
    "spriteSourceSize": { "x": 0, "y": 0, "w": 533, "h": 300 },
    "sourceSize": { "w": 533, "h": 300 },
    "duration": 100
   },
   "cutscene_background 4.aseprite": {
    "frame": { "x": 2132, "y": 0, "w": 533, "h": 300 },
    "rotated": false,
    "trimmed": false,
    "spriteSourceSize": { "x": 0, "y": 0, "w": 533, "h": 300 },
    "sourceSize": { "w": 533, "h": 300 },
    "duration": 200
   },
   "cutscene_background 5.aseprite": {
    "frame": { "x": 2665, "y": 0, "w": 533, "h": 300 },
    "rotated": false,
    "trimmed": false,
    "spriteSourceSize": { "x": 0, "y": 0, "w": 533, "h": 300 },
    "sourceSize": { "w": 533, "h": 300 },
    "duration": 100
   },
   "cutscene_background 6.aseprite": {
    "frame": { "x": 3198, "y": 0, "w": 533, "h": 300 },
    "rotated": false,
    "trimmed": false,
    "spriteSourceSize": { "x": 0, "y": 0, "w": 533, "h": 300 },
    "sourceSize": { "w": 533, "h": 300 },
    "duration": 100
   },
   "cutscene_background 7.aseprite": {
    "frame": { "x": 3731, "y": 0, "w": 533, "h": 300 },
    "rotated": false,
    "trimmed": false,
    "spriteSourceSize": { "x": 0, "y": 0, "w": 533, "h": 300 },
    "sourceSize": { "w": 533, "h": 300 },
    "duration": 100
   },
   "cutscene_background 8.aseprite": {
    "frame": { "x": 4264, "y": 0, "w": 533, "h": 300 },
    "rotated": false,
    "trimmed": false,
    "spriteSourceSize": { "x": 0, "y": 0, "w": 533, "h": 300 },
    "sourceSize": { "w": 533, "h": 300 },
    "duration": 200
   },
   "cutscene_background 9.aseprite": {
    "frame": { "x": 4797, "y": 0, "w": 533, "h": 300 },
    "rotated": false,
    "trimmed": false,
    "spriteSourceSize": { "x": 0, "y": 0, "w": 533, "h": 300 },
    "sourceSize": { "w": 533, "h": 300 },
    "duration": 100
   },
   "cutscene_background 10.aseprite": {
    "frame": { "x": 5330, "y": 0, "w": 533, "h": 300 },
    "rotated": false,
    "trimmed": false,
    "spriteSourceSize": { "x": 0, "y": 0, "w": 533, "h": 300 },
    "sourceSize": { "w": 533, "h": 300 },
    "duration": 200
   },
   "cutscene_background 11.aseprite": {
    "frame": { "x": 5863, "y": 0, "w": 533, "h": 300 },
    "rotated": false,
    "trimmed": false,
    "spriteSourceSize": { "x": 0, "y": 0, "w": 533, "h": 300 },
    "sourceSize": { "w": 533, "h": 300 },
    "duration": 100
   }
 },
 "meta": {
  "app": "https://www.aseprite.org/",
  "version": "1.3.2-x64",
  "image": "cutscene2_beforebackground.png",
  "format": "RGBA8888",
  "size": { "w": 6396, "h": 300 },
  "scale": "1",
  "frameTags": [
  ],
  "layers": [
   { "name": "spaceship", "opacity": 255, "blendMode": "normal" },
   { "name": "Layer 5", "opacity": 255, "blendMode": "normal" }
  ],
  "slices": [
  ]
 }
}
